1 10 20
20 444 144
123 456 144
33 78 116
765 900 179
1000 2006 182
7690 9800 260
578 1000 179
3 1000 179
69 420 144
10 1 20
99 6780 262
5089 9856 262
32 1500 182
234890 236000 306
45 879 179
56478 89720 351
769 8026 262
19 10026 262
3 8 17
79 7 116
333 905 179
102 99 26
2378 9045 262
890768 899546 370
65789 23900 340
45 44 17
862 3764 238
128 968 179
1 3 8
2 2 2
19627 20845 274
89 1065 179
10000 20000 279
4000 9000 262
378 1875 182
212 9003 262
50 250 128
33 333 144
99 25 119
99 990 179
10 15 18
15 550 144
25 67 113
158 1840 182
50 5000 238
5 95 116
10 9 20
15 1276 182
20 800 171
25 754 171
30 35 107
35 656 145
40 4096 238
45 1735 182
50 500 144
55 5790 238
60 69 108
65 10764 262
70 30 113
75 548 144
80 88 111
85 3700 217
90 4532 238
95 9500 262
100 102 26
105 100 88
110 17200 276
115 821 171
120 94 119
125 12389 268
130 759 171
135 571 144
140 148 117
145 602 144
150 1111 179
1500 1900 180
1505 12374 268
1510 1925 180
1610 1666 180
16100 25000 282
16203 67000 340
17203 54619 340
12345 56789 340
17 93 116
4 967 179
1 12 20
34 587 144
99 100 26
99 10000 262
14732 45765 324
100650 105000 310
875100 880000 432
222 888 179
333 444 134
102 506 144
6000 6001 50
75 875 179
100 450 144
27 63 113
2 1008 179
900432 900000 370
