10 1 20
200 100 125
210 201 89
1000 900 174
1 2 2
9998 9999 92
1 9999 262
1 1 1
2 2 2
3 3 8
4 4 3
5 5 6
6 6 9
7 7 17
8 8 4
9 9 20
10 10 7
10 100 119
5095 6392 262
234 240 128
1 10 20
100 200 125
112 470 144
169 932 179
1990 7881 262
2676 4859 238
7210 2877 262
130 5487 238
4840 285 238
123 1234 182
4321 321 238
1 99999 351
1 100000 351
1 100001 351
1 100010 351
1 100100 351
1 101000 351
1 110000 354
1 112500 354
999998 999999 259
900000 900001 189
100000 100001 129
2292 8762 262
89916 79343 333
2 3 8
3 4 8
4 5 6
5 6 9
6 7 17
7 8 17
8 9 20
10 11 15
10 12 15
10 13 15
10 14 18
10 15 18
10 16 18
10 17 18
10 18 21
10 19 21
1 100 119
1 101 119
500 1000 179
250 500 144
1000 2000 182
111 1111 179
222 2222 182
333 3333 217
444 4444 238
555 5555 238
666 6666 262
777 7777 262
888 8888 262
999 9999 262
98247 85356 333
5992 7735 262
9459 8893 260
607 7378 262
11 11 15
22 22 16
33 33 27
44 44 17
55 55 113
66 66 28
77 77 23
88 88 18
99 99 26
55 555 144
100 100 26
999 999 50
888 888 73
777 777 34
32 32 6
10 123 119
1 9 20
2 8 17
3 7 17
4 6 9
12308 12390 263
80394 93480 333
10101 1010 262
