1 10 19
100 200 124
201 210 88
900 1000 173
11 30 111
10 1 19
10000 11000 267
78705 86705 337
6586 9000 256
78705 83705 337
78705 84705 337
82828 90000 332
664 11064 267
250900 251000 287
19196 20000 273
838383 847382 418
825845 835000 418
838383 843383 387
19194 20000 273
7118 7875 238
6759 6778 181
7692 7702 145
8888 9999 259
6666 7777 256
250700 250800 318
838383 845383 400
1579 1679 179
3827 7699 261
7692 7694 145
3827 7697 261
281357 281500 357
78705 79705 337
7775 12000 267
214 548 143
2147 4673 237
19193 20000 273
3333 4444 237
3827 7698 261
42069 69420 339
4757 13000 267
838383 844383 387
251600 251700 212
7777 8888 251
2222 3333 216
7692 7700 145
7692 7695 145
78705 85705 337
251700 251800 225
56 90 115
250100 250200 300
19199 20000 273
5555 6666 261
36967 40000 305
3827 7693 261
7692 7698 145
838383 847383 418
3827 7700 261
7692 7699 145
19200 20000 273
7692 7693 52
838383 846383 400
250500 250600 287
240082 250000 367
250000 250100 318
3827 7702 261
3827 7694 261
838383 848383 418
838383 839383 343
4274 5678 235
16589 17466 265
19198 20000 273
11111 22222 278
4444 5555 209
251100 251200 256
19192 20000 273
22000 32000 307
3827 7701 261
420 6969 261
251200 251300 318
19195 20000 273
567 2000 181
78705 88705 337
55453 65000 334
78705 87705 337
250400 250500 181
3827 7695 261
7692 7697 145
949 959 129
78705 80705 337
624803 625000 278
251800 251900 212
251300 251400 287
19197 20000 273
1111 2222 181
348345 349600 334
250300 250400 331
78705 81705 337
251400 251500 287
622098 633098 508
250200 250300 256
78705 82705 337
3827 7696 261
7692 7701 145
7692 7696 145
577632 580000 358
838383 841383 387
251500 251600 256
19191 20000 273
838383 842383 387
9999 11111 267
