1 10 20
100 200 125
201 210 89
900 1000 174
2 2 2
10000 20000 279
500 2 144
3 600 144
400 5 144
500 507 111
10 20 21
200 201 27
150 200 125
99000 100000 328
999999 1 525
600989 390258 470
50 55 113
62 78 116
42 1 112
3587 6891 262
4210 5894 236
5000 6000 236
8550 1000 262
9999 10000 92
12000 15000 276
23000 27548 308
56840 7894 340
85041 96751 333
20 75000 340
500 86750 351
10000 87500 351
2500 65402 340
150000 780000 509
150241 150242 114
520750 600000 452
520751 750000 509
520752 520751 165
600000 600000 54
850000 4000 525
851003 52 525
24 654789 509
2054 785000 509
999999 82 525
245 862041 525
260 12 128
45000 2467 324
450 450 54
620 619 132
150200 150460 339
2300 2340 183
120 20 119
5000 10 238
12345 67890 340
11111 22222 279
33 444 144
555 6766 262
95555 95555 134
4273 32942 308
23 23 16
555 555 31
222 22222 279
900000 900000 158
341 1234 182
4545 4545 140
999 999 50
9 99999 351
242 234 128
232 232 22
4444 4444 34
555 555 31
343 343 126
76777 77777 351
77777 77777 170
50001 4 324
11 11 15
33 33 27
55 55 113
66 66 28
54 54 113
55 57 113
22 21 16
99 999 179
63453 63453 79
23234 42 279
525 23424 279
3 5 8
3 3 8
8 8 4
7 7 17
7 8 17
5 57 113
1232 1232 27
1232 123 182
1232 12 182
1232 1 182
1232 10 182
2452 2452 41
666 666 114
14 714 171
56 56 20
