1 10 20
100 200 125
201 210 89
900 1000 174
1851 4426 238
2324 9984 262
4783 4532 197
4415 5758 236
745 1657 182
2087 684 182
2297 5237 238
415 1714 182
953 3574 217
3539 2892 217
1694 1799 180
3382 4171 238
1381 5651 238
1919 1949 144
2063 5091 238
4193 9688 262
4149 2817 238
1270 5067 238
1969 8354 262
1136 7853 262
439 966 179
931 1067 174
3254 4980 238
676 3706 217
569 330 142
1552 1431 172
1125 322 179
493 8305 262
3656 7413 262
485 4841 238
4499 5314 210
1514 2761 209
2868 2688 173
4099 548 238
1877 8339 262
3040 5623 238
2362 940 183
905 3286 217
4011 1544 238
1087 711 179
1001 5467 238
4544 4789 197
579 1423 182
4496 9488 262
4252 4875 215
4873 7735 262
98 7360 262
3592 7582 262
3287 3030 199
276 7377 262
4547 9117 262
2282 7275 262
2876 2244 209
742 1865 182
180 8680 262
1257 8728 262
2849 8967 262
848 3908 238
106 9683 262
2645 4268 238
1246 8692 262
4501 8739 262
326 1641 182
3926 1260 238
1333 1484 172
2569 6373 262
2283 6961 262
835 6070 238
3926 8401 262
549 7049 262
180 3824 238
1174 2006 180
3909 9522 262
4096 2229 238
849 1672 182
3753 3198 238
232 9178 262
4393 2569 238
2699 4470 238
4997 8404 262
27 3126 217
2277 335 183
4064 4141 189
1619 1236 177
3113 8385 262
423 9122 262
2722 6019 238
3974 1317 238
3094 5704 238
2170 1568 180
1769 9522 262
2434 4198 238
778 2050 182
3036 7205 262
982 9164 262
4546 525 238
611 9587 262
1301 2076 180
4899 6829 262
3398 9419 262
900 7364 262
298 923 179
2888 6831 262
2522 1366 209
28 3138 217
1703 7664 262
4311 4301 171
2699 1247 209
1441 7644 262
573 7201 262
2339 9172 262
251 4521 238
478 8658 262
356 35 144
646 6380 262
4921 7474 262
343 8832 262
1322 1736 180
3488 7167 262
2434 5112 238
1681 3434 217
4801 9792 262
3243 5947 238
350 4944 238
2180 9807 262
