.............
----------------------------------------------------------------------
Ran 13 tests in 0.034s

OK
Name             Stmts   Miss Branch BrPart  Cover   Missing
------------------------------------------------------------
Collatz.py          43     19     26     13    48%   21, 48, 52, 57->59, 59->62, 60, 63-64, 67->69, 70-75, 76->57, 77-90, 105-113
TestCollatz.py      60      0      2      0   100%
------------------------------------------------------------
TOTAL              103     19     28     13    73%
