1 100000 351
90000 210000 383
1 300000 443
200000 300000 443
200000 200000 130
50 50 25
55 100550 351
300 350908 443
1 10 20
100 200 125
201 210 89
900 1000 174
362631 137225 443
712564 424825 509
236207 226957 443
409367 264139 441
320423 421769 449
858504 463362 525
392776 559007 470
903724 450203 525
166436 426425 449
950009 89334 525
667737 329592 509
396717 878516 525
319025 366757 441
517135 994119 525
35340 486806 449
484549 55216 449
297559 673200 509
126636 874751 525
955852 311144 525
732244 591938 509
77087 467143 449
542763 113631 470
923039 203267 525
906331 16741 525
874184 195114 525
232334 968185 525
431587 618236 470
405449 257001 441
561847 867157 525
991551 691361 525
435622 528973 470
165923 606103 470
784697 643459 504
689321 303026 509
113179 847821 525
2833 669278 509
821841 905986 525
357131 460111 449
844852 762451 525
904601 583479 525
23662 12273 282
53052 239964 443
230998 255367 381
391643 950130 525
543340 833645 509
317991 763400 509
524001 133966 470
38094 97097 351
413646 417264 387
797598 99465 509
636299 71811 509
426847 977511 525
475187 428843 444
581079 254277 470
370749 447979 449
328835 74928 443
613835 61885 470
718899 741227 424
154621 643201 509
978947 413767 525
361904 382763 423
658788 178480 509
516234 709240 509
286605 118718 443
944343 111971 525
37552 616908 470
128994 915394 525
312253 731707 509
124920 533430 470
462174 114606 449
181669 338195 443
776448 7973 509
550220 911432 525
519320 214671 470
906504 830717 525
212521 953238 525
334555 315889 384
348184 304720 441
199236 925819 525
491475 310305 449
494859 580538 470
358515 839152 525
564852 456488 470
487473 276195 449
463235 48917 449
424217 923697 525
195493 746340 509
281009 506021 449
487841 494633 426
946326 834712 525
358048 563644 470
424197 920677 525
493385 717157 509
455973 610981 470
14479 372310 443
89542 723950 509
482281 493421 426
658090 879944 525
961885 920999 507
174649 720932 509
544925 209936 470
431798 220335 449
84466 8868 351
51218 176117 383
401070 673159 509
981931 49454 525
851988 250651 525
915547 648144 525
972898 389527 525
126335 609252 470
556885 4608 470
985000 662087 525
409642 957795 525
858701 838983 419
431205 984724 525
224530 822420 509
430616 318436 449
783156 344667 509
779732 952705 525
761144 303972 509
77692 17642 351
698376 629691 442
755594 630419 504
351406 464078 449
490943 522618 470
332967 629361 509
870287 489426 525
755152 712310 424
299585 509179 449
815896 716766 468
123827 339797 443
461462 336863 449
176055 780512 509
514574 703408 509
753423 903176 525
961873 83161 525
906192 318747 525
428363 973603 525
738797 682154 504
119718 711691 509
162580 363515 443
142652 966159 525
886141 826556 525
69118 455408 449
315054 310000 384
860719 357032 525
135440 107848 349
801690 157227 509
671534 893061 525
425480 701736 509
812837 359675 509
497828 415186 444
562276 709583 509
364056 111157 443
218131 491890 449
607447 432009 470
693378 928274 525
70817 801395 509
731925 166632 509
155314 433363 449
668430 249104 509
115815 293842 443
207554 230660 443
161583 459701 449
90767 295639 443
568653 419819 470
30260 57310 340
608887 367976 470
889357 868211 445
165184 487998 449
444306 848916 525
909590 146780 525
991514 248247 525
684938 373461 509
