1 10 20
100 200 125
201 210 89
900 1000 174
40 200 125
65 120 119
88 78 111
999999 1 525
1 999999 525
5 500 144
999999 999999 259
5090 45 238
99 5090 238
1 12 20
25 12 24
26 14 24
28 10000 262
36 6225 262
48 5552 238
55214 99875 351
552 99875 351
5521 99875 351
5214 99875 351
38856 95 324
698 9787 262
55687 9 340
55214 99 340
5 9 20
99999 1 351
99871 99875 116
6584 5547 262
43258 97978 351
111111 165645 383
3385 5564 238
78798 5542 351
4489 7787 262
8898 99875 351
55214 6542 340
55214 88974 351
3355 5474 238
68974 99875 351
1234 1234 133
5784 99875 351
66985 99875 351
13254 12 268
33 489 144
47 85 116
996 7879 262
66895 33215 340
967854 5568 525
2231 551 183
22356 4458 279
5562 9 238
12 19 21
91 1120 179
45 60 113
60 45 113
18 5 21
14 95 116
22 56 113
66 68 28
75 98 119
78 55 116
66 74 116
89 54 116
365 1254 182
44587 4665 324
365 222 144
12 987 179
16 1354 182
2656 99875 351
8897 56545 340
8897 23565 282
6265 36547 324
556 1 144
365 2 144
98 98 26
55 555 144
456 348 134
789 987 179
4455 5090 210
468 4879 238
635 798 171
658 4855 238
9668 2365 262
3685 498 217
5689 46568 324
5552 8935 262
6879 13245 268
63687 99875 351
98978 99875 328
5532 17 238
51 88 116
62 124 119
203 209 89
305 3152 217
407 409 41
6052 6057 187
6352 6578 213
896 903 117
12 15 18
16 15 18
